EXP/LAB2/simulation/qsim/rca.msim.vcd
$comment
	File created using the following command:
		vcd file rca.msim.vcd -direction
$end
$date
	Fri Sep 09 11:25:45 2022
$end
$version
	ModelSim Version 10.5b
$end
$timescale
	1ps
$end

$scope module rca_vlg_vec_tst $end
$var reg 4 ! a [3:0] $end
$var reg 4 " b [3:0] $end
$var reg 1 # ci $end
$var wire 1 $ Cout [3] $end
$var wire 1 % Cout [2] $end
$var wire 1 & Cout [1] $end
$var wire 1 ' Cout [0] $end
$var wire 1 ( Sum [3] $end
$var wire 1 ) Sum [2] $end
$var wire 1 * Sum [1] $end
$var wire 1 + Sum [0] $end

$scope module i1 $end
$var wire 1 , gnd $end
$var wire 1 - vcc $end
$var wire 1 . unknown $end
$var tri1 1 / devclrn $end
$var tri1 1 0 devpor $end
$var tri1 1 1 devoe $end
$var wire 1 2 Cout[0]~output_o $end
$var wire 1 3 Cout[1]~output_o $end
$var wire 1 4 Cout[2]~output_o $end
$var wire 1 5 Cout[3]~output_o $end
$var wire 1 6 Sum[0]~output_o $end
$var wire 1 7 Sum[1]~output_o $end
$var wire 1 8 Sum[2]~output_o $end
$var wire 1 9 Sum[3]~output_o $end
$var wire 1 : b[3]~input_o $end
$var wire 1 ; a[3]~input_o $end
$var wire 1 < b[2]~input_o $end
$var wire 1 = a[2]~input_o $end
$var wire 1 > b[1]~input_o $end
$var wire 1 ? a[1]~input_o $end
$var wire 1 @ ci~input_o $end
$var wire 1 A b[0]~input_o $end
$var wire 1 B a[0]~input_o $end
$var wire 1 C u0|Cout~0_combout $end
$var wire 1 D u1|Cout~0_combout $end
$var wire 1 E u2|Cout~0_combout $end
$var wire 1 F u3|Cout~0_combout $end
$var wire 1 G u0|Sum~0_combout $end
$var wire 1 H u1|Sum~combout $end
$var wire 1 I u2|Sum~combout $end
$var wire 1 J u3|Sum~combout $end
$upscope $end
$upscope $end
$enddefinitions $end
#0
$dumpvars
b0 !
b1 "
0#
0'
0&
0%
0$
1+
0*
0)
0(
0,
1-
x.
1/
10
11
02
03
04
05
16
07
08
09
0:
0;
0<
0=
0>
0?
0@
1A
0B
0C
0D
0E
0F
1G
0H
0I
0J
$end
#40000
b1 !
1B
1C
0G
06
0+
1H
17
1*
#80000
b11 !
b11 "
b10 "
b10 !
0A
1>
0B
1?
0C
1D
0H
1I
18
07
0*
1)
#120000
b11 "
b11 !
1B
1A
1C
1H
17
1*
#160000
b111 !
b111 "
b101 !
b101 "
b100 "
b100 !
0A
0>
1<
0B
0?
1=
0C
0D
1E
0H
0I
1J
19
08
07
0*
0)
1(
#200000
b101 "
b101 !
1B
1A
1C
1H
17
1*
#240000
b111 !
b111 "
b110 "
b110 !
0A
1>
0B
1?
0C
1D
0H
1I
18
07
0*
1)
#280000
b111 "
b111 !
1B
1A
1C
1H
17
1*
#320000
b1111 !
b1111 "
b1011 !
b1011 "
b1001 !
b1001 "
b1000 "
b1000 !
0A
0>
0<
1:
0B
0?
0=
1;
0C
0D
0E
1F
12
1'
0H
0I
0J
09
08
07
0*
0)
0(
#360000
b1001 "
b1001 !
1B
1A
1C
1H
17
1*
#400000
b1011 !
b1011 "
b1010 "
b1010 !
0A
1>
0B
1?
0C
1D
0H
1I
18
07
0*
1)
#440000
b1011 "
b1011 !
1B
1A
1C
1H
17
1*
#480000
b1111 !
b1111 "
b1101 !
b1101 "
b1100 "
b1100 !
0A
0>
1<
0B
0?
1=
0C
0D
1E
0H
0I
1J
19
08
07
0*
0)
1(
#520000
b1101 "
b1101 !
1B
1A
1C
1H
17
1*
#560000
b1111 !
b1111 "
b1110 "
b1110 !
0A
1>
0B
1?
0C
1D
0H
1I
18
07
0*
1)
#600000
b1111 "
b1111 !
1B
1A
1C
1H
17
1*
#640000
b111 !
b111 "
b11 !
b11 "
b1 !
b1 "
b0 "
b0 !
0A
0>
0<
0:
0B
0?
0=
0;
0C
0D
0E
0F
02
0'
0H
0I
0J
09
08
07
0*
0)
0(
